<svg width="183" height="177" viewBox="0 0 183 177" fill="none" xmlns="http://www.w3.org/2000/svg">
<path id="Asterisk 1" d="M35.7569 171.885C40.4851 175.324 45.9746 176.984 51.424 176.984C59.6251 176.984 67.7187 173.224 72.9276 166.157C72.9425 166.142 72.9566 166.127 72.97 166.11C72.9825 166.094 72.9951 166.077 73.0069 166.061L73.0249 166.035C73.0375 166.017 73.0493 166 73.0611 165.983L91.4931 140.597L109.925 165.983C109.943 166.011 109.962 166.032 109.98 166.056C109.989 166.067 109.997 166.078 110.005 166.09C118.687 177.934 135.369 180.544 147.243 171.898C159.13 163.254 161.788 146.539 153.213 134.602L153.194 134.572C153.178 134.547 153.166 134.528 153.146 134.508L134.754 109.107L164.553 99.3921C178.55 94.8287 186.243 79.6932 181.689 65.6677C177.135 51.6431 162.042 43.9348 148.031 48.4849L118.233 58.1606L118.22 26.7517C118.206 12.0041 106.225 0 91.5064 0C76.7878 0 64.8072 12.0041 64.7939 26.7651L64.7672 58.1472L34.969 48.4715C34.9572 48.4715 34.9428 48.4689 34.9284 48.4648C34.9096 48.4597 34.8904 48.4522 34.8754 48.4447C20.8912 43.9482 5.8519 51.6564 1.31074 65.6552C-3.23049 79.6531 4.4095 94.7351 18.3401 99.3386C18.353 99.3426 18.3646 99.3473 18.3756 99.352L18.4247 99.3709L18.4471 99.3788L48.2318 109.094L29.8399 134.495C29.8333 134.508 29.8234 134.521 29.8134 134.535C29.8033 134.548 29.7934 134.562 29.7867 134.575C21.1984 146.512 23.8697 163.24 35.7569 171.885Z" fill="#2F80ED"/>
</svg>
